{
    "type" : "postgresql",
    "out" : {
        "type" : "s3",
        "accessKeyId" : "NDnwqKGeHnozKhf4Yq53",
        "secretAccessKey" : "rq9Q2ZCCnA3m6kFA84VHi45c0Vi3m7MLEJigku7C",
        "region" : "", 
        "bucket" : "teste-backup",
        "endpoint" : "https://versions-api.marconsoft.com.br",
        "stayDays": 1
    },
    "postgresql" : {
        "username": "postgres",
        "password": "123456",
        "host": "127.0.0.1",
        "port": "5432",
        "pathBin" : "",
        "databases": ["marconsoft"]
    }
}